{
  "type": "service_account",
  "project_id": "focus-union-299918",
  "private_key_id": "7b61f3ebe83d8b5244afd9e9f0c4ac50137d789d",
  "private_key": "-----BEGIN PRIVATE KEY-----\nMIIEvAIBADANBgkqhkiG9w0BAQEFAASCBKYwggSiAgEAAoIBAQDGpsc+gOqrTErZ\nBWZeBZj0FA/rNrbswRo4h6EgkfxS5yNby+azj6hPXJHg1+ag5aC9j361U7+/QWU5\n7Jl5grcFeSGrcV3xVdN8jxPX5MrB4Fkm90nVavdUsFuj9Z4uNmzdAprvbeGlvrH0\ncpBvfDTkS6OudV90akGUE6GUtpMPn2ACTXuEGvoftyzfiROtWYGyL/5Ar8dvE4KL\ny5W991yUtyU/hHg5CCJ7chJBxsB/vrdIWDr+Nqqpw+vjkJsKvb4lTDie6GyDaCZS\nyF0TcFcnBHbXsERLQ1xzetJ8ofHfzBDoDgTQo+Frd8lRzDvSzk1wV3A75v4URp16\nMBe9vvtRAgMBAAECggEABaleDTirv4IxEah5DXnRvTaXac3tVpfuDzGD4MeSWjtE\nz2ZjOse/zXO7I14p4DjtLOvimcjDUrBKohUNfnhgjpkQQehtK841NOQHxe/bDL2f\n8teqSLknx4fPc8/BsGncDkw3RdbDDygNPrUXa1r+D6nddlDZbaoj2HRbBv/RVwkI\nFr/p2VrUK56SAEphtfQnTT46eWtH0fRF4zo5Hp8AzixtYKNcQh6oJMuvWOQIA4Z2\nCK7+dh/XuzBzHsLVlB9f8bSpDx6ts6zdHZwW91gvjOutmD0BjT4kFfU7DE1iv2OG\nFFHdHuL9If2QxPR6tGnE+FzjtTAfnpyxIkCA/q+OYQKBgQDx/xW+tUG+0A5F/4iW\nWXvWvYNe7TZyNS8jze/juFOqlXlnYUcLAU2cExo0jimCQp3xRtQVqHgWfisXlTNi\nulljcENPzYjgtbH8aZm8fxROK3V1HXBl7QyzxSSxg+krQg3s8bINFEpWbNsFH6Tr\nCFpkAmn0T1gSznWvw4MY8v3PoQKBgQDSJZW6qfj3RMPPDe7B5YsswYe3GBe0rCkc\nDc7mwEMn9GYXBA+uK0spuDZEXYhE4w7ldU0hk0bCAxamT6fCUim8RfxbpKsHqiuM\nhQqJQRno+2PmUZUw1a9ny7wo3XTHgPLrx/kAmgb6wp87asSAA4P9SOgjPrjv0JRk\nWqovnm9NsQKBgFAHJIDJ3nEkyuOZKulVtF+CkrRMzCmervUvQHrVVU3fWqO2htD7\n4FeR9aOVs+Jw91x4KOD0sqn1lXiaDcFDkRYSZSA5/18Yl0C7B21PtT5YnuJZFveO\nGhpFQuo1jmGQ2ZwXHeO3ZxIHs7KREW/sdkAGkFWL+7tUbZTvmiYhDZChAoGAVKVr\nADtC22bJcHduOo/ZVXfG0MtVkSLflDtDodLDui5JiO/L2R37MpzOzw7VutmywF5V\naTbHg5J25xqiujUaNooCMm/LrFSxIfLc4ZhldWD9RmKKM5d/BdIcwmEhjtK0BqEP\n/VwNf6gxN1+0MtQ3sChTyQ6Us5RSkXGrp26r6qECgYBc059mcO/vof2IgaIPDDrk\npxUkEvOcu5SsSGDltlIKp3sB1DFOFL7jGD9D4iM4IxAvPkv4QcBfSeDow3XK5evr\nyjUH4lca8Zsth5vh0mUmk157kbygrJ0TNaGjRU1pHgd455VNxGuEMwlyS+4b56vZ\nQ0KzQApFSeDrcF45kbqiww==\n-----END PRIVATE KEY-----\n",
  "client_email": "firebase-adminsdk-kj2sz@focus-union-299918.iam.gserviceaccount.com",
  "client_id": "109099745846829569120",
  "auth_uri": "https://accounts.google.com/o/oauth2/auth",
  "token_uri": "https://oauth2.googleapis.com/token",
  "auth_provider_x509_cert_url": "https://www.googleapis.com/oauth2/v1/certs",
  "client_x509_cert_url": "https://www.googleapis.com/robot/v1/metadata/x509/firebase-adminsdk-kj2sz%40focus-union-299918.iam.gserviceaccount.com"
}
